…
It can be difficult to both recognize when data is untidy and what the best course of action might be when untidiness is detected. The rest of this chapter will use the untidy `winniweather` dataset to point out some of the more common ways that data can be untidy. The lessons will also demonstrate some useful techniques for transforming the untidy dataset into a tidy and useful dataset. The big payoff will be the ability to plot all of the data points in the tidied version of winniweather with **ggplot** (which is not initially possible without severe complications).

## Using **tidyr** to Tidy Our Tables

The **tidyr** package, part of the *Tidyverse*, has been designed to help with the task of tidying tabular data. We only need a few functions from the package to transform an untidy data table (`winniweather`) to a tidy one.

### Identifying Untidiness and Proposing Some Solutions to Tidy Up

The `winniweather` dataset is available in the **dspatterns** package; let's look at the top of the table by printing the dataset.

`<p style="margin-bottom: 0; font-size: 14px"><strong>CODE //</strong> The <code>winniweather</code> dataset, printed to the console.</p>`{=html}

```r
winniweather
#> # A tibble: 28 x 6
#>   yearmonth   day temp00_00 temp06_00 temp12_00 temp18_00
#>   <chr>     <int>     <dbl>     <dbl>     <dbl>     <dbl>
#> 1 2015-2        1     -26.8     -29.2     -22.5     -21  
#> 2 2015-2        2     -19.7     -16.7     -13.9     -17.3
#> 3 2015-2        3     -19.4     -21.1     -14.9     -13.9
#> 4 2015-2        4     -20.2     -23.6     -21.7     -19.7
#> 5 2015-2        5     -18.8     -15.8      -7.8     -13.3
#> 6 2015-2        6     -17       -18.3     -16.9     -14.6
#> # … with 22 more rows
```
…
```r
winni_mod <- 
  winniweather %>%  #A
  pivot_longer(
    starts_with("temp"),  #B
    names_to = "hour",  #C
    values_to = "temp"  #D
  )

winni_mod
#> # A tibble: 112 x 4
#>   yearmonth   day hour       temp
#>   <chr>     <int> <chr>     <dbl>
#> 1 2015-2        1 temp00_00 -26.8
#> 2 2015-2        1 temp06_00 -29.2
#> 3 2015-2        1 temp12_00 -22.5
#> 4 2015-2        1 temp18_00 -21  
#> 5 2015-2        2 temp00_00 -19.7
#> 6 2015-2        2 temp06_00 -16.7
#> # … with 106 more rows
```
…
```r
winni_mod <- 
  winni_mod %>%  #A
  mutate(hour = case_when(  #B
    hour == "temp00_00" ~ 0L,  #C
    hour == "temp06_00" ~ 6L,  #C
    hour == "temp12_00" ~ 12L,  #C
    hour == "temp18_00" ~ 18L  #C
  ))

winni_mod
#> # A tibble: 112 x 4
#>   yearmonth   day  hour  temp
#>   <chr>     <int> <int> <dbl>
#> 1 2015-2        1     0 -26.8
#> 2 2015-2        1     6 -29.2
#> 3 2015-2        1    12 -22.5
#> 4 2015-2        1    18 -21  
#> 5 2015-2        2     0 -19.7
#> 6 2015-2        2     6 -16.7
#> # … with 106 more rows
```
…
```r
winni_tidy <-  #A
  winni_mod %>%                
  separate(
    col = yearmonth,  #B
    into = c("year", "month"),  #C
    sep = "-",  #D
    convert = TRUE  #E
  )

winni_tidy
#> # A tibble: 112 x 5
#>    year month   day  hour  temp
#>   <int> <int> <int> <int> <dbl>
#> 1  2015     2     1     0 -26.8
#> 2  2015     2     1     6 -29.2
#> 3  2015     2     1    12 -22.5
#> 4  2015     2     1    18 -21  
#> 5  2015     2     2     0 -19.7
#> 6  2015     2     2     6 -16.7
#> # … with 106 more rows
```
…
```r
winni_tidy <- 
  winni_tidy %>%
  arrange(year, month, day, hour)  #A

winni_tidy
#> # A tibble: 112 x 5
#>    year month   day  hour  temp
#>   <int> <int> <int> <int> <dbl>
#> 1  2015     2     1     0 -26.8
#> 2  2015     2     1     6 -29.2
#> 3  2015     2     1    12 -22.5
#> 4  2015     2     1    18 -21  
#> 5  2015     2     2     0 -19.7
#> 6  2015     2     2     6 -16.7
#> # … with 106 more rows
```
…
Recall that the columns given to `arrange()` have a sorting priority. Here we are sorting in order of the largest time parts to the smallest (`year`, `month`, `day`, `hour`). Furthermore, the arrangement is in ascending order, where the time of each observation is increasing as we move down the table.

### Inspecting Our Tidied Data by Plotting with **ggplot**

We now have a single observation per row and, as far as we can tell, all observations are accounted for. There is immense value in having our data in a tidy format. For one thing, it's easier now to plot the data as time-series plot using **ggplot**. We do have to make one more alteration though (and this is only a small change). We should create a date-time column so that each point in time is represented by a single variable. We can do that with **dplyr**'s `mutate()` function and the base function `ISOdate()`. With those functions, the new `iso_date` column can be created by supplying all of the time-component columns to `ISOdate()`.

`<p style="margin-bottom: 0; font-size: 14px"><strong>CODE //</strong> A date-time column is necessary for <strong>ggplot</strong>-based time-series plots.</p>`{=html}

```r
winni_tidy <- 
  winni_tidy %>%
  mutate(iso_date = ISOdate(year, month, day, hour))

winni_tidy
#> # A tibble: 112 x 6
#>    year month   day  hour  temp iso_date           
#>   <int> <int> <int> <int> <dbl> <dttm>             
#> 1  2015     2     1     0 -26.8 2015-02-01 00:00:00
#> 2  2015     2     1     6 -29.2 2015-02-01 06:00:00
#> 3  2015     2     1    12 -22.5 2015-02-01 12:00:00
#> 4  2015     2     1    18 -21   2015-02-01 18:00:00
#> 5  2015     2     2     0 -19.7 2015-02-02 00:00:00
#> 6  2015     2     2     6 -16.7 2015-02-02 06:00:00
#> # … with 106 more rows
```
…
