…
```{=html}
<p style="margin-bottom: 0; font-size: 14px"><strong>CODE //</strong> The <code>sw</code> dataset can be printed to the console by using <code>sw</code>.</p>
<details style="font-family: &#39;Open Sans&#39;, sans-serif; color: #333333; font-size:11px; margin-bottom: 2px; padding-top: 4px; padding-bottom: 4px;">
<summary style="outline-style: solid; outline-width: 1px; outline-color: #B6B4FA; background-color: white; margin-left: -0.5px; margin-bottom: 6px; text-indent: 6px; cursor: pointer; font-size: 10px; display: list-item;">Notes on the Code</summary>
<span style="color:steelblue;font-weight:bold;">#A </span>So long as we have the <strong>dspatterns</strong> package loaded in (with <code>library(dspatterns)</code>), we have access to the <code>sw</code> dataset. Executing <code>sw</code> (a <em>tibble</em>) prints it and shows us some of its values.
<br style="font-size: 14px;"/>
</details>
```


```r
sw  #A
#> # A tibble: 87 x 8
#>   name           height  mass hair_color  birth_year gender    homeworld species
#>   <chr>           <int> <dbl> <chr>            <dbl> <chr>     <chr>     <chr>  
#> 1 Luke Skywalker    172    77 blond             19   masculine Tatooine  Human  
#> 2 C-3PO             167    75 <NA>             112   masculine Tatooine  Droid  
#> 3 R2-D2              96    32 <NA>              33   masculine Naboo     Droid  
#> 4 Darth Vader       202   136 none              41.9 masculine Tatooine  Human  
#> 5 Leia Organa       150    49 brown             19   feminine  Alderaan  Human  
#> 6 Owen Lars         178   120 brown, grey       52   masculine Tatooine  Human  
#> # … with 81 more rows
```
…
Just by scanning the `height` column we can see that all values are greater than `220`.

There are also logical operators and they can be used to link together filtering statements. These operators consist of the following set:

- `&` (the *AND* operator)
- `|` (the *OR* operator)

The following code filters all Star Wars characters in the `sw` table to those that either have height above `210` or a mass above `120`.

`<p style="margin-bottom: 0; font-size: 14px"><strong>CODE //</strong> Filtering characters by either <code>height</code> above <code>210</code>, or, <code>mass</code> above <code>120</code>.</p>`{=html}

```r
filter(sw, height > 210 | mass > 120)
#> # A tibble: 10 x 8
#>   name             height  mass hair_color birth_year gender   homeworld species
#>   <chr>             <int> <dbl> <chr>           <dbl> <chr>    <chr>     <chr>  
#> 1 Darth Vader         202   136 none             41.9 masculi… Tatooine  Human  
#> 2 Chewbacca           228   112 brown           200   masculi… Kashyyyk  Wookiee
#> 3 Jabba Desilijic…    175  1358 <NA>            600   masculi… Nal Hutta Hutt   
#> 4 IG-88               200   140 none             15   masculi… <NA>      Droid  
#> 5 Roos Tarpals        224    82 none             NA   masculi… Naboo     Gungan 
#> 6 Yarael Poof         264    NA none             NA   masculi… Quermia   Quermi…
#> # … with 4 more rows
```
…
```{=html}
<p style="margin-bottom: 0; font-size: 14px"><strong>CODE //</strong> Get all Droid and Human characters (method 1 with a <code>[expr | expr]</code> construction).</p>
<details style="font-family: &#39;Open Sans&#39;, sans-serif; color: #333333; font-size:11px; margin-bottom: 2px; padding-top: 4px; padding-bottom: 4px;">
<summary style="outline-style: solid; outline-width: 1px; outline-color: #B6B4FA; background-color: white; margin-left: -0.5px; margin-bottom: 6px; text-indent: 6px; cursor: pointer; font-size: 10px; display: list-item;">Notes on the Code</summary>
<span style="color:steelblue;font-weight:bold;">#A </span>This is our second use of the OR operator (<code>|</code>), which can be confusing until you think of it in terms of 'include either this or that'.
<br style="font-size: 14px;"/>
</details>
```


```r
filter(sw, species == "Droid" | species == "Human")  #A
#> # A tibble: 41 x 8
#>   name           height  mass hair_color  birth_year gender    homeworld species
#>   <chr>           <int> <dbl> <chr>            <dbl> <chr>     <chr>     <chr>  
#> 1 Luke Skywalker    172    77 blond             19   masculine Tatooine  Human  
#> 2 C-3PO             167    75 <NA>             112   masculine Tatooine  Droid  
#> 3 R2-D2              96    32 <NA>              33   masculine Naboo     Droid  
#> 4 Darth Vader       202   136 none              41.9 masculine Tatooine  Human  
#> 5 Leia Organa       150    49 brown             19   feminine  Alderaan  Human  
#> 6 Owen Lars         178   120 brown, grey       52   masculine Tatooine  Human  
#> # … with 35 more rows
```
…
```{=html}
<p style="margin-bottom: 0; font-size: 14px"><strong>CODE //</strong> Get all Droid and Human characters (method 2 with <code>[colname %&gt;% c(...)]</code> construction).</p>
<details style="font-family: &#39;Open Sans&#39;, sans-serif; color: #333333; font-size:11px; margin-bottom: 2px; padding-top: 4px; padding-bottom: 4px;">
<summary style="outline-style: solid; outline-width: 1px; outline-color: #B6B4FA; background-color: white; margin-left: -0.5px; margin-bottom: 6px; text-indent: 6px; cursor: pointer; font-size: 10px; display: list-item;">Notes on the Code</summary>
<span style="color:steelblue;font-weight:bold;">#A </span>This statement gets us exactly the same output as before. It might be an easier statement to write out and to reason about. We can think of it as 'the column must contain any of this set of values to be kept'.
<br style="font-size: 14px;"/>
</details>
```


```r
filter(sw, species %in% c("Droid", "Human"))  #A
#> # A tibble: 41 x 8
#>   name           height  mass hair_color  birth_year gender    homeworld species
#>   <chr>           <int> <dbl> <chr>            <dbl> <chr>     <chr>     <chr>  
#> 1 Luke Skywalker    172    77 blond             19   masculine Tatooine  Human  
#> 2 C-3PO             167    75 <NA>             112   masculine Tatooine  Droid  
#> 3 R2-D2              96    32 <NA>              33   masculine Naboo     Droid  
#> 4 Darth Vader       202   136 none              41.9 masculine Tatooine  Human  
#> 5 Leia Organa       150    49 brown             19   feminine  Alderaan  Human  
#> 6 Owen Lars         178   120 brown, grey       52   masculine Tatooine  Human  
#> # … with 35 more rows
```
…
```{=html}
<p style="margin-bottom: 0; font-size: 14px"><strong>CODE //</strong> Arranging characters by increasing <code>height</code>.</p>
<details style="font-family: &#39;Open Sans&#39;, sans-serif; color: #333333; font-size:11px; margin-bottom: 2px; padding-top: 4px; padding-bottom: 4px;">
<summary style="outline-style: solid; outline-width: 1px; outline-color: #B6B4FA; background-color: white; margin-left: -0.5px; margin-bottom: 6px; text-indent: 6px; cursor: pointer; font-size: 10px; display: list-item;">Notes on the Code</summary>
<span style="color:steelblue;font-weight:bold;">#A </span>Like the <code>filter()</code> function (and really, this applies to all of <strong>dplyr</strong>'s main functions), the first value to give to <code>arrange()</code> is the data: <code>sw</code>.
<br style="font-size: 14px;"/>
</details>
```


```r
arrange(sw, height)  #A
#> # A tibble: 87 x 8
#>   name          height  mass hair_color birth_year gender   homeworld species   
#>   <chr>          <int> <dbl> <chr>           <dbl> <chr>    <chr>     <chr>     
#> 1 Yoda              66    17 white             896 masculi… <NA>      Yoda's sp…
#> 2 Ratts Tyerell     79    15 none               NA masculi… Aleen Mi… Aleena    
#> 3 Wicket Systr…     88    20 brown               8 masculi… Endor     Ewok      
#> 4 Dud Bolt          94    45 none               NA masculi… Vulpter   Vulptereen
#> 5 R2-D2             96    32 <NA>               33 masculi… Naboo     Droid     
#> 6 R4-P17            96    NA none               NA feminine <NA>      Droid     
#> # … with 81 more rows
```
…
```{=html}
<p style="margin-bottom: 0; font-size: 14px"><strong>CODE //</strong> Arranging characters by <code>hair_color</code> and then by <code>gender</code>.</p>
<details style="font-family: &#39;Open Sans&#39;, sans-serif; color: #333333; font-size:11px; margin-bottom: 2px; padding-top: 4px; padding-bottom: 4px;">
<summary style="outline-style: solid; outline-width: 1px; outline-color: #B6B4FA; background-color: white; margin-left: -0.5px; margin-bottom: 6px; text-indent: 6px; cursor: pointer; font-size: 10px; display: list-item;">Notes on the Code</summary>
<span style="color:steelblue;font-weight:bold;">#A </span>We can keep adding column names, separated by commas, to further specify the priority of ordering.
<br style="font-size: 14px;"/>
</details>
```


```r
arrange(sw, hair_color, gender)  #A
#> # A tibble: 87 x 8
#>   name          height  mass hair_color    birth_year gender   homeworld species
#>   <chr>          <int> <dbl> <chr>              <dbl> <chr>    <chr>     <chr>  
#> 1 Mon Mothma       150  NA   auburn                48 feminine Chandrila Human  
#> 2 Wilhuff Tark…    180  NA   auburn, grey          64 masculi… Eriadu    Human  
#> 3 Obi-Wan Keno…    182  77   auburn, white         57 masculi… Stewjon   Human  
#> 4 Shmi Skywalk…    163  NA   black                 72 feminine Tatooine  Human  
#> 5 Luminara Und…    170  56.2 black                 58 feminine Mirial    Mirial…
#> 6 Barriss Offee    166  50   black                 40 feminine Mirial    Mirial…
#> # … with 81 more rows
```
…
```{=html}
<p style="margin-bottom: 0; font-size: 14px"><strong>CODE //</strong> Arranging by descending <code>hair_color</code>, then by ascending <code>gender</code>.</p>
<details style="font-family: &#39;Open Sans&#39;, sans-serif; color: #333333; font-size:11px; margin-bottom: 2px; padding-top: 4px; padding-bottom: 4px;">
<summary style="outline-style: solid; outline-width: 1px; outline-color: #B6B4FA; background-color: white; margin-left: -0.5px; margin-bottom: 6px; text-indent: 6px; cursor: pointer; font-size: 10px; display: list-item;">Notes on the Code</summary>
<span style="color:steelblue;font-weight:bold;">#A </span>Arranging a column in descending order requires a modifier, and we use the <code>desc()</code> helper function to indicate that those columns that should be sorted in that way.
<br style="font-size: 14px;"/>
</details>
```


```r
arrange(sw, desc(hair_color), gender)  #A
#> # A tibble: 87 x 8
#>   name         height  mass hair_color birth_year gender   homeworld species    
#>   <chr>         <int> <dbl> <chr>           <dbl> <chr>    <chr>     <chr>      
#> 1 Jocasta Nu      167    NA white              NA feminine Coruscant Human      
#> 2 Yoda             66    17 white             896 masculi… <NA>      Yoda's spe…
#> 3 Ki-Adi-Mundi    198    82 white              92 masculi… Cerea     Cerean     
#> 4 Dooku           193    80 white             102 masculi… Serenno   Human      
#> 5 Captain Pha…     NA    NA unknown            NA <NA>     <NA>      <NA>       
#> 6 Ayla Secura     178    55 none               48 feminine Ryloth    Twi'lek    
#> # … with 81 more rows
```
…
```{=html}
<p style="margin-bottom: 0; font-size: 14px"><strong>CODE //</strong> Selecting the <code>name</code>, <code>gender</code>, and <code>species</code> columns.</p>
<details style="font-family: &#39;Open Sans&#39;, sans-serif; color: #333333; font-size:11px; margin-bottom: 2px; padding-top: 4px; padding-bottom: 4px;">
<summary style="outline-style: solid; outline-width: 1px; outline-color: #B6B4FA; background-color: white; margin-left: -0.5px; margin-bottom: 6px; text-indent: 6px; cursor: pointer; font-size: 10px; display: list-item;">Notes on the Code</summary>
<span style="color:steelblue;font-weight:bold;">#A </span>With <code>select()</code> we first supply the data (<code>sw</code>), and then the columns we want to keep. We separate each name with a comma.
<br style="font-size: 14px;"/>
</details>
```


```r
select(sw, name, gender, species)  #A
#> # A tibble: 87 x 3
#>   name           gender    species
#>   <chr>          <chr>     <chr>  
#> 1 Luke Skywalker masculine Human  
#> 2 C-3PO          masculine Droid  
#> 3 R2-D2          masculine Droid  
#> 4 Darth Vader    masculine Human  
#> 5 Leia Organa    feminine  Human  
#> 6 Owen Lars      masculine Human  
#> # … with 81 more rows
```
…
```{=html}
<p style="margin-bottom: 0; font-size: 14px"><strong>CODE //</strong> Selecting the <code>gender</code>, <code>species</code>, and <code>names</code> columns (in that order).</p>
<details style="font-family: &#39;Open Sans&#39;, sans-serif; color: #333333; font-size:11px; margin-bottom: 2px; padding-top: 4px; padding-bottom: 4px;">
<summary style="outline-style: solid; outline-width: 1px; outline-color: #B6B4FA; background-color: white; margin-left: -0.5px; margin-bottom: 6px; text-indent: 6px; cursor: pointer; font-size: 10px; display: list-item;">Notes on the Code</summary>
<span style="color:steelblue;font-weight:bold;">#A </span>We are keeping the same columns, but they appear (left to right) in the order we specify: <code>gender</code>, <code>species</code>, <code>name</code>.
<br style="font-size: 14px;"/>
</details>
```


```r
select(sw, gender, species, name)  #A
#> # A tibble: 87 x 3
#>   gender    species name          
#>   <chr>     <chr>   <chr>         
#> 1 masculine Human   Luke Skywalker
#> 2 masculine Droid   C-3PO         
#> 3 masculine Droid   R2-D2         
#> 4 masculine Human   Darth Vader   
#> 5 feminine  Human   Leia Organa   
#> 6 masculine Human   Owen Lars     
#> # … with 81 more rows
```
…
```{=html}
<p style="margin-bottom: 0; font-size: 14px"><strong>CODE //</strong> Selecting the <code>name</code> column and any additional columns ending with <code>&quot;s&quot;</code>.</p>
<details style="font-family: &#39;Open Sans&#39;, sans-serif; color: #333333; font-size:11px; margin-bottom: 2px; padding-top: 4px; padding-bottom: 4px;">
<summary style="outline-style: solid; outline-width: 1px; outline-color: #B6B4FA; background-color: white; margin-left: -0.5px; margin-bottom: 6px; text-indent: 6px; cursor: pointer; font-size: 10px; display: list-item;">Notes on the Code</summary>
<span style="color:steelblue;font-weight:bold;">#A </span>We want to keep the <code>name</code> column (appearing first, at the left) and then all columns with those names ending in the letter <code>&quot;s&quot;</code> (in the order they originally appear).
<br style="font-size: 14px;"/>
</details>
```


```r
select(sw, name, ends_with("s"))  #A
#> # A tibble: 87 x 3
#>   name            mass species
#>   <chr>          <dbl> <chr>  
#> 1 Luke Skywalker    77 Human  
#> 2 C-3PO             75 Droid  
#> 3 R2-D2             32 Droid  
#> 4 Darth Vader      136 Human  
#> 5 Leia Organa       49 Human  
#> 6 Owen Lars        120 Human  
#> # … with 81 more rows
```
…
```{=html}
<p style="margin-bottom: 0; font-size: 14px"><strong>CODE //</strong> Selecting the <code>name</code> column and any additional columns containing an underscore.</p>
<details style="font-family: &#39;Open Sans&#39;, sans-serif; color: #333333; font-size:11px; margin-bottom: 2px; padding-top: 4px; padding-bottom: 4px;">
<summary style="outline-style: solid; outline-width: 1px; outline-color: #B6B4FA; background-color: white; margin-left: -0.5px; margin-bottom: 6px; text-indent: 6px; cursor: pointer; font-size: 10px; display: list-item;">Notes on the Code</summary>
<span style="color:steelblue;font-weight:bold;">#A </span>The <code>name</code> column comes first. Any column names containing an underscore character will follow (in their original order).
<br style="font-size: 14px;"/>
</details>
```


```r
select(sw, name, contains("_"))  #A
#> # A tibble: 87 x 3
#>   name           hair_color  birth_year
#>   <chr>          <chr>            <dbl>
#> 1 Luke Skywalker blond             19  
#> 2 C-3PO          <NA>             112  
#> 3 R2-D2          <NA>              33  
#> 4 Darth Vader    none              41.9
#> 5 Leia Organa    brown             19  
#> 6 Owen Lars      brown, grey       52  
#> # … with 81 more rows
```
…
```{=html}
<p style="margin-bottom: 0; font-size: 14px"><strong>CODE //</strong> Selecting three specific columns and then <code>everything()</code> else after that.</p>
<details style="font-family: &#39;Open Sans&#39;, sans-serif; color: #333333; font-size:11px; margin-bottom: 2px; padding-top: 4px; padding-bottom: 4px;">
<summary style="outline-style: solid; outline-width: 1px; outline-color: #B6B4FA; background-color: white; margin-left: -0.5px; margin-bottom: 6px; text-indent: 6px; cursor: pointer; font-size: 10px; display: list-item;">Notes on the Code</summary>
<span style="color:steelblue;font-weight:bold;">#A </span>Three columns are selected directly by their names, then, all remaining columns come after those in their original order (captured by <code>everything()</code>).
<br style="font-size: 14px;"/>
</details>
```


```r
select(sw, name, homeworld, gender, everything())  #A
#> # A tibble: 87 x 8
#>   name           homeworld gender    height  mass hair_color  birth_year species
#>   <chr>          <chr>     <chr>      <int> <dbl> <chr>            <dbl> <chr>  
#> 1 Luke Skywalker Tatooine  masculine    172    77 blond             19   Human  
#> 2 C-3PO          Tatooine  masculine    167    75 <NA>             112   Droid  
#> 3 R2-D2          Naboo     masculine     96    32 <NA>              33   Droid  
#> 4 Darth Vader    Tatooine  masculine    202   136 none              41.9 Human  
#> 5 Leia Organa    Alderaan  feminine     150    49 brown             19   Human  
#> 6 Owen Lars      Tatooine  masculine    178   120 brown, grey       52   Human  
#> # … with 81 more rows
```
…
```{=html}
<p style="margin-bottom: 0; font-size: 14px"><strong>CODE //</strong> Create the <code>sw_small</code> table containing just three columns.</p>
<details style="font-family: &#39;Open Sans&#39;, sans-serif; color: #333333; font-size:11px; margin-bottom: 2px; padding-top: 4px; padding-bottom: 4px;">
<summary style="outline-style: solid; outline-width: 1px; outline-color: #B6B4FA; background-color: white; margin-left: -0.5px; margin-bottom: 6px; text-indent: 6px; cursor: pointer; font-size: 10px; display: list-item;">Notes on the Code</summary>
<span style="color:steelblue;font-weight:bold;">#A </span>We <code>select()</code> three columns from <code>sw</code> and assign the resulting table to <code>sw_small</code>.<br><span style="color:steelblue;font-weight:bold;">#B </span>Executing the newly made variable (<code>sw_small</code>) displays that smaller table in the output.
<br style="font-size: 14px;"/>
</details>
```


```r
sw_small <- select(sw, name, height, mass)  #A

sw_small  #B
#> # A tibble: 87 x 3
#>   name           height  mass
#>   <chr>           <int> <dbl>
#> 1 Luke Skywalker    172    77
#> 2 C-3PO             167    75
#> 3 R2-D2              96    32
#> 4 Darth Vader       202   136
#> 5 Leia Organa       150    49
#> 6 Owen Lars         178   120
#> # … with 81 more rows
```
…
